module github.com/getground/devops-techtask

go 1.14

require (
	github.com/gin-gonic/gin v1.6.3
	github.com/go-redis/redis/v8 v8.3.3
	github.com/kelseyhightower/envconfig v1.4.0
	golang.org/x/sys v0.5.0 // indirect
)
